<?xml version="1.0" standalone="no"?>
<!DOCTYPE svg PUBLIC "-//W3C//DTD SVG 1.1//EN" "http://www.w3.org/Graphics/SVG/1.1/DTD/svg11.dtd" >
<!--
2017-2-21: Created.
-->
<svg xmlns="http://www.w3.org/2000/svg">
<metadata>
Created by FontForge 20120731 at Tue Feb 21 02:38:58 2017
 By Apache
Created by Apache with FontForge 2.0 (http://fontforge.sf.net)
</metadata>
<defs>
<font id="Flaticon" horiz-adv-x="512" >
  <font-face 
    font-family="Flaticon"
    font-weight="500"
    font-stretch="normal"
    units-per-em="512"
    panose-1="2 0 6 3 0 0 0 0 0 0"
    ascent="448"
    descent="-64"
    bbox="-0.012207 -64.002 512.003 448.001"
    underline-thickness="25.6"
    underline-position="-51.2"
    unicode-range="U+0020-F113"
  />
    <missing-glyph />
    <glyph glyph-name="space" unicode=" " horiz-adv-x="200" 
 />
    <glyph glyph-name="uniF102" unicode="&#xf102;" 
d="M0 319.583h512l-255.999 -255.167z" />
    <glyph glyph-name="uniF109" unicode="&#xf109;" 
d="M208.94 116.909l11.873 -29.6914c-11.499 -4.59375 -22.9668 -8.0957 -34.1553 -10.4355l-6.53223 31.3066c9.37598 1.97656 19.0635 4.94043 28.8145 8.82031zM113.72 78.5615l8.84668 30.7441c8.99805 -2.59082 18.5293 -3.95996 28.3438 -4.12207l-0.50293 -31.9961
c-12.6221 0.1875 -24.9688 2 -36.6875 5.37402zM365.686 134.408l6.19043 31.375c12.1592 -2.37891 24.0029 -6.53516 35.2568 -12.3164l-14.6953 -28.4365c-8.53027 4.40332 -17.5283 7.55957 -26.752 9.37793zM298.935 160.656
c12.0361 3.77832 24.0674 6.18555 35.7588 7.12598l2.55566 -31.877c-9.30762 -0.749023 -18.9697 -2.68457 -28.7451 -5.74707zM247.564 136.594c6.30859 3.90527 12.5 7.37402 18.4961 10.4365l14.5342 -28.4941c-5.2793 -2.69043 -10.6572 -5.72363 -16.1592 -9.13086
c-3.99805 -2.50195 -7.99707 -4.80664 -11.9023 -7.00391l-15.5645 27.9434c3.46973 1.94043 7.00391 3.99805 10.5957 6.24902zM336.004 336c0 -13.0625 -3.13184 -25.4385 -8.69238 -36.3154l-71.3096 -139.683s-71.875 140.844 -72.1553 141.434
c-5.03418 10.4385 -7.84277 22.1885 -7.84277 34.5645c0 44.1865 35.8105 80 79.998 80c44.1836 0 80.002 -35.8135 80.002 -80zM304.003 336c0 26.5 -21.502 48.002 -48.001 48.002c-26.501 0 -48.002 -21.502 -48.002 -48.002c0 -26.4971 21.501 -47.998 48.002 -47.998
c26.499 0 48.001 21.501 48.001 47.998zM416.001 256l95.999 -288h-512l96.001 288.001h75.0938c4.21777 -8.2832 9.56152 -18.749 16.3438 -32.001h-68.373l-32.0654 -96.1562c2.75098 -2.21582 5.87695 -4.58984 9.69043 -6.99805l-17.0029 -27.0625
c-1.25098 0.77832 -2.12305 1.52734 -3.24805 2.30957l-32.0645 -96.0908h423.223l-29.9082 89.7725l-3.37305 -2.02832c-0.0341797 0.0332031 -6.12598 9.81934 -17.876 20.4365l11.0312 12.1895l-34.5332 103.627h-68.3457l16.3506 32.001h75.0576z" />
    <glyph glyph-name="uniF104" unicode="&#xf104;" 
d="M167.009 366.568c7.21777 7.21777 18.582 7.21777 25.7998 0c6.97461 -6.97461 6.97461 -18.582 0 -25.54l-130.82 -130.82h431.69c10.0625 0 18.3213 -7.99902 18.3213 -18.0615c0 -10.0635 -8.25879 -18.3223 -18.3213 -18.3223h-431.69l130.82 -130.576
c6.97461 -7.21875 6.97461 -18.8418 0 -25.7998c-7.21777 -7.21875 -18.582 -7.21875 -25.7998 0l-161.79 161.79c-6.97461 6.97461 -6.97461 18.582 0 25.54z" />
    <glyph glyph-name="uniF103" unicode="&#xf103;" horiz-adv-x="511" 
d="M374.496 438.501c6.33398 -6.33594 9.50195 -13.8311 9.50391 -22.498v-448c0 -8.66699 -3.16992 -16.1699 -9.50391 -22.499c-6.33105 -6.33398 -13.834 -9.50586 -22.499 -9.50586c-8.66895 0 -16.1709 3.17188 -22.5 9.50586l-223.998 224
c-6.33105 6.3291 -9.49902 13.832 -9.49902 22.499s3.16797 16.1641 9.49902 22.498l223.998 224c6.33105 6.33496 13.833 9.49902 22.5 9.49902c8.66504 0 16.168 -3.16406 22.499 -9.49902z" />
    <glyph glyph-name="uniF111" unicode="&#xf111;" 
d="M440.073 201.481l69.1484 -69.1484c3.70801 -3.70703 3.70801 -9.69922 0 -13.4072c-1.84863 -1.84863 -4.27637 -2.77734 -6.70312 -2.77734c-2.42773 0 -4.85449 0.928711 -6.70312 2.77734l-69.1484 69.1484l-69.1484 -69.1484
c-1.84961 -1.84863 -4.27637 -2.77734 -6.7041 -2.77734c-2.42676 0 -4.85449 0.928711 -6.70312 2.77734c-3.70703 3.70801 -3.70703 9.7002 0 13.4072l69.1484 69.1484l-69.1484 69.1484c-3.70703 3.70703 -3.70703 9.69922 0 13.4072
c3.70703 3.70703 9.69922 3.70703 13.4072 0l69.1484 -69.1484l69.1484 69.1484c3.70703 3.70703 9.69922 3.70703 13.4062 0c3.70801 -3.70801 3.70801 -9.7002 0 -13.4072zM269.312 406.281c9.47266 -5.35645 15.1328 -15.123 15.1328 -26.1309v-376.301
c0 -11.0078 -5.66016 -20.7744 -15.1328 -26.1211c-4.50293 -2.54199 -9.39551 -3.80273 -14.2979 -3.8125c-5.16699 0 -10.335 1.41309 -14.999 4.22949c-0.541016 0.322266 -1.05273 0.701172 -1.52734 1.1377l-128.407 117.949l-100.599 -0.046875
c-2.52246 0 -4.9209 1.00488 -6.70312 2.77734c-1.7832 1.77344 -2.77832 4.18164 -2.77832 6.7041v180.147c0 5.24316 4.23828 9.48145 9.48145 9.48145h100.826l128.474 108.687c0.379883 0.322266 0.796875 0.625977 1.2334 0.881836
c9.09277 5.48047 20.0527 5.65137 29.2969 0.416992zM265.481 3.84961v376.301c0 4.08691 -2.05762 7.6709 -5.48926 9.61426c-1.47949 0.834961 -5.27246 2.46484 -9.63379 0.170898l-127.1 -107.521v-43.0078c0 -5.24316 -4.2373 -9.48145 -9.48145 -9.48145
c-5.24316 0 -9.48145 4.23828 -9.48145 9.48145v37.9258h-85.333v-161.185l85.333 0.0380859v37.8877c0 5.24316 4.23828 9.48145 9.48145 9.48145c5.24414 0 9.48145 -4.23828 9.48145 -9.48145v-43.1982l127.251 -116.896
c4.28613 -2.17188 8.0127 -0.579102 9.48242 0.246094c3.43164 1.94434 5.48926 5.53711 5.48926 9.62402z" />
    <glyph glyph-name="uniF10C" unicode="&#xf10c;" 
d="M270.714 432.806v-22.2158h-30.3896v22.2158c0 8.38281 6.81152 15.1943 15.1943 15.1943c8.38379 0 15.1953 -6.81152 15.1953 -15.1943zM100.955 298.256l27.9785 43.6973c0.733398 1.15332 0.733398 2.62012 0 3.77246l-27.9785 43.8018
c-1.57227 2.41016 0.104492 5.44922 2.93359 5.44922h270.146c4.19238 0 8.06934 -2.0957 10.375 -5.6582l25.6729 -40.1348c2.0957 -3.24805 2.0957 -7.33496 0 -10.584l-25.6729 -40.1338c-2.30566 -3.5625 -6.18262 -5.6582 -10.375 -5.6582h-270.146
c-2.72461 0 -4.40039 3.14355 -2.93359 5.44824zM411.131 235.906l-28.083 -43.6963c-0.733398 -1.15332 -0.733398 -2.62012 0 -3.77246l27.9785 -43.8018c1.57129 -2.41113 -0.104492 -5.44922 -2.93457 -5.44922h-121.765v102.169h121.87
c2.72461 0 4.40039 -3.14355 2.93359 -5.44922zM224.606 241.355v-102.169h-86.6611c-4.19141 0 -8.06836 2.0957 -10.374 5.6582l-25.6729 40.1348c-2.0957 3.24805 -2.0957 7.33496 0 10.583l25.6729 40.1348c2.30566 3.5625 6.18262 5.6582 10.374 5.6582h86.6611z
M303.513 -10.9766c11.4219 0 20.6436 -9.22168 20.6436 -20.6436v-32.3799h-137.274v32.3799c0 11.4219 9.22168 20.6436 20.6436 20.6436h32.7988v288.17h30.3896v-288.17h32.7988z" />
    <glyph glyph-name="uniF113" unicode="&#xf113;" 
d="M512 350.532c-14.5127 -21.2207 -32.0557 -39.3086 -52.6367 -54.2461c0.217773 -3.0332 0.327148 -7.5791 0.327148 -13.6445c0 -28.1602 -4.11719 -56.2559 -12.3438 -84.3076c-8.2373 -28.0469 -20.7402 -54.9551 -37.5244 -80.7295
c-16.7832 -25.7715 -36.7676 -48.5674 -59.9375 -68.3838c-23.1768 -19.8203 -51.1123 -35.6348 -83.8223 -47.4336c-32.6943 -11.8066 -67.6729 -17.7021 -104.925 -17.7021c-58.6943 0 -112.406 15.7002 -161.139 47.1016
c7.58203 -0.871094 16.0254 -1.2959 25.3408 -1.2959c48.7314 0 92.1553 14.9414 130.272 44.8252c-22.7422 0.443359 -43.1016 7.4209 -61.0791 20.957c-17.9736 13.5439 -30.3203 30.8096 -37.0332 51.8145c7.14551 -1.0752 13.752 -1.61621 19.8174 -1.61621
c9.31152 0 18.5176 1.19141 27.6152 3.57031c-24.2549 4.98438 -44.3447 17.0518 -60.2637 36.2227c-15.917 19.1738 -23.876 41.4229 -23.876 66.7646v1.2998c14.7256 -8.23047 30.5352 -12.6719 47.4316 -13.3223c-14.2959 9.53027 -25.6689 21.9824 -34.1143 37.3574
c-8.45117 15.3779 -12.6738 32.0566 -12.6738 50.0332c0 19.0586 4.7666 36.7129 14.2969 52.9531c26.2051 -32.2695 58.0967 -58.0977 95.6748 -77.4834c37.5801 -19.3848 77.8086 -30.1592 120.693 -32.3242c-1.73438 8.22949 -2.59863 16.2451 -2.59863 24.041
c0 29.0205 10.2324 53.7627 30.6963 74.2305c20.4756 20.4678 45.2178 30.7002 74.2363 30.7002c30.3281 0 55.8809 -11.0498 76.6738 -33.1406c23.6055 4.5498 45.8018 12.9941 66.6035 25.3369c-8.01465 -24.9062 -23.3965 -44.1816 -46.1367 -57.8262
c20.1338 2.17285 40.2812 7.58398 60.4238 16.248z" />
    <glyph glyph-name="uniF10E" unicode="&#xf10e;" 
d="M204.8 64.1982c-98.4307 0 -179.001 80.1738 -179.001 179.002c0 98.4307 80.5703 179.001 179.001 179.001c98.8281 0 179.002 -80.1729 179.002 -179.001c0 -43.2617 -15.876 -83.3486 -41.6748 -114.308l138.915 -138.914
c6.35059 -6.35059 6.35059 -16.6699 0 -23.0205c-3.17578 -3.1748 -7.14453 -4.7627 -11.5098 -4.7627c-4.36621 0 -8.33496 1.58789 -11.5107 4.7627l-138.914 138.915c-30.959 -26.1953 -70.6484 -41.6748 -114.308 -41.6748zM204.8 389.656
c-80.5703 0 -146.456 -65.8857 -146.456 -146.456s65.4893 -146.456 146.456 -146.456c80.9678 0 146.456 65.4883 146.456 146.456c0 80.5703 -65.4883 146.456 -146.456 146.456z" />
    <glyph glyph-name="uniF10A" unicode="&#xf10a;" 
d="M255.999 448c106.03 0 192.002 -85.9707 192.002 -192c0 -43.1885 -14.248 -83.002 -38.3145 -115.097l-153.686 -204.903l-153.688 204.903c-24.0645 32.0947 -38.3145 71.9092 -38.3145 115.097c0 106.029 85.9707 192 192 192zM255.999 128.001
c70.6904 0 127.999 57.3086 127.999 127.999c0 70.6875 -57.3096 128.001 -127.999 128.001c-70.6865 0 -127.998 -57.3135 -127.998 -128.001c0 -70.6895 57.3115 -127.999 127.998 -127.999z" />
    <glyph glyph-name="uniF101" unicode="&#xf101;" 
d="M390.497 214.501c6.33105 -6.33398 9.50586 -13.8311 9.50586 -22.4971c0 -8.66797 -3.17676 -16.1709 -9.50586 -22.498l-223.998 -224c-6.33496 -6.33398 -13.832 -9.50586 -22.499 -9.50586c-8.66504 0 -16.1621 3.17188 -22.5039 9.50586
c-6.33398 6.33105 -9.49902 13.833 -9.49902 22.499v447.998c0 8.66699 3.16504 16.1641 9.49902 22.498c6.33398 6.33496 13.832 9.49902 22.5039 9.49902s16.1641 -3.16406 22.499 -9.49902z" />
    <glyph glyph-name="uniF105" unicode="&#xf105;" 
d="M512 144.522l-256 198.715l-256 -198.715v81.0195l256 198.712l256 -198.714v-81.0176zM448 151.746v-192h-128v128h-128v-128h-128v192l192 144z" />
    <glyph glyph-name="uniF107" unicode="&#xf107;" 
d="M234.486 347.09c-27.8691 0 -50.4658 22.5898 -50.4658 50.4551c0 27.873 22.5967 50.4551 50.4658 50.4551c27.8369 0 50.4521 -22.582 50.4521 -50.4551c0 -27.8652 -22.6152 -50.4551 -50.4521 -50.4551zM312.453 61.1826
c6.07617 0.0507812 11.8037 0.102539 16.748 0.142578l17.6152 -34.6084c-24.7764 -53.459 -78.8105 -90.7168 -141.5 -90.7168c-86.0234 0 -156.008 69.9854 -156.008 155.998c0 70.4053 46.9082 130.002 111.109 149.339v-47.2939
c-39.2031 -17.3184 -66.6738 -56.5098 -66.6738 -102.045c0 -61.5137 50.04 -111.556 111.573 -111.556c50.8125 0 93.7285 34.1875 107.136 80.7402zM459.449 1.29199c7.43945 -14.585 1.63867 -32.4326 -12.9668 -39.8408
c-4.29004 -2.19531 -8.87988 -3.23047 -13.4072 -3.23047c-10.8008 0 -21.208 5.93066 -26.4229 16.207l-59.3447 116.681h-30.4756h-81.4512c-25.0381 0 -45.335 20.2969 -45.335 45.334v145.045c0 24.542 19.8975 44.4424 44.4414 44.4424
c30.7744 0 44.4268 -26.0303 44.4268 -44.4424v-66.9463h29.6152h44.8799c12.2842 0 22.2227 -9.95117 22.2227 -22.2197c0 -4.84668 -1.86719 -9.08594 -4.49219 -12.7344c-4.03906 -5.60059 -10.291 -9.48926 -17.7305 -9.48926h-74.4951v-19.7373h86.5576
c11.1543 0 21.3516 -6.25781 26.3955 -16.2002z" />
    <glyph glyph-name="uniF106" unicode="&#xf106;" 
d="M256 448c141.158 0 256 -114.842 256 -256s-114.842 -256 -256 -256s-256 114.842 -256 256s114.842 256 256 256zM256 -46.9336c131.746 0 238.934 107.188 238.934 238.934s-107.188 238.934 -238.934 238.934s-238.934 -107.188 -238.934 -238.934
s107.188 -238.934 238.934 -238.934zM197.675 375.816c-30.5068 -7.33008 -58.3428 -22.8945 -80.4609 -45.0215s-37.7002 -49.9541 -45.0303 -80.4609c-0.947266 -3.91699 -4.44629 -6.54492 -8.29492 -6.54492c-0.65625 0 -1.33105 0.0683594 -1.99609 0.230469
c-4.58301 1.10938 -7.40723 5.7168 -6.30664 10.291c8.07227 33.5703 25.208 64.1787 49.5615 88.5332c24.3545 24.3545 54.9639 41.498 88.542 49.5703c4.57422 1.08398 9.19043 -1.72363 10.291 -6.30664c1.10156 -4.57324 -1.72363 -9.18164 -6.30566 -10.291z
M450.107 139.98c4.58301 -1.10938 7.40723 -5.7168 6.31543 -10.291c-8.08105 -33.5781 -25.2168 -64.1875 -49.5703 -88.542c-24.3545 -24.3535 -54.9639 -41.4971 -88.5508 -49.5703c-0.665039 -0.15332 -1.33984 -0.229492 -1.99707 -0.229492
c-3.84766 0 -7.35547 2.62793 -8.29395 6.54492c-1.10059 4.57324 1.72363 9.18164 6.30566 10.291c30.5156 7.33008 58.3516 22.9033 80.4697 45.0303s37.7002 49.9541 45.0303 80.4609c1.10059 4.59082 5.7002 7.40723 10.291 6.30566zM208.657 334.626
c-23.2451 -5.41895 -44.4414 -17.1855 -61.2695 -34.0225c-16.8281 -16.8359 -28.5947 -38.0156 -34.0137 -61.2695c-0.921875 -3.93359 -4.42871 -6.5957 -8.30273 -6.5957c-0.648438 0 -1.29785 0.0595703 -1.94629 0.22168
c-4.59082 1.06641 -7.44922 5.65723 -6.37402 10.2402c6.14355 26.3682 19.4814 50.3887 38.5703 69.4697c19.0898 19.0977 43.1025 32.4268 69.4697 38.5703c4.56543 1.11816 9.17383 -1.7832 10.2402 -6.37402c1.0752 -4.58203 -1.7832 -9.17383 -6.37402 -10.2402z
M415.24 140.791c-6.14355 -26.3672 -19.4727 -50.3809 -38.5537 -69.4609c-19.0889 -19.0977 -43.1016 -32.4268 -69.4697 -38.5703c-0.657227 -0.154297 -1.30566 -0.222656 -1.94531 -0.222656c-3.87402 0 -7.38965 2.6543 -8.30273 6.59668
c-1.0752 4.58203 1.7832 9.17383 6.37402 10.2402c23.2539 5.41016 44.4414 17.1777 61.2695 34.0137s28.5947 38.0156 34.0137 61.2695c1.06641 4.59082 5.64941 7.50879 10.2402 6.37402c4.59082 -1.06641 7.44922 -5.65723 6.37402 -10.2402zM226.091 303.573
c1.00684 -4.59961 -1.91113 -9.14746 -6.50293 -10.1543c-32.3926 -7.0918 -57.9072 -32.6064 -64.998 -64.999c-0.878906 -3.99316 -4.40332 -6.70703 -8.32812 -6.70703c-0.606445 0 -1.2207 0.0595703 -1.83496 0.196289
c-4.59961 1.00684 -7.51758 5.55566 -6.51074 10.1553c8.50781 38.8857 39.1338 69.5117 78.0195 78.0195c4.58301 0.990234 9.13965 -1.89453 10.1553 -6.51074zM374.084 151.936c-8.50781 -38.8857 -39.1338 -69.5117 -78.0117 -78.0195
c-0.614258 -0.12793 -1.22852 -0.196289 -1.83398 -0.196289c-3.92578 0 -7.4502 2.71289 -8.3291 6.70703c-1.00684 4.59961 1.91113 9.14746 6.51074 10.1543c32.3926 7.0918 57.9072 32.6064 64.999 64.999c1.00684 4.61621 5.54688 7.51758 10.1543 6.51074
c4.59961 -1.00684 7.51758 -5.55566 6.51074 -10.1553zM324.949 192c0 -38.0156 -30.9336 -68.9492 -68.9492 -68.9492s-68.9492 30.9336 -68.9492 68.9492s30.9336 68.9492 68.9492 68.9492s68.9492 -30.9336 68.9492 -68.9492zM256 140.117
c28.6123 0 51.8828 23.2793 51.8828 51.8828s-23.2793 51.8828 -51.8828 51.8828s-51.8828 -23.2793 -51.8828 -51.8828s23.2705 -51.8828 51.8828 -51.8828z" />
    <glyph glyph-name="uniF10B" unicode="&#xf10b;" 
d="M473.054 274.767c-38.8525 6.92773 -75.6328 25.2998 -104.929 54.5498c-29.2646 29.2803 -47.6152 66.0391 -54.5186 104.9c39.3389 24.6455 96.3672 15.917 135.867 -23.5703c39.4736 -39.4863 48.1973 -96.5244 23.5801 -135.88zM445.908 247.615
c-39.3701 -24.5947 -96.3613 -15.8516 -135.862 23.6182c-39.4551 39.4844 -48.1836 96.4932 -23.5713 135.849c10.377 -37.2998 29.7305 -72.2793 58.418 -100.999c28.7197 -28.6904 63.7002 -48.0391 101.016 -58.4678zM289.666 72.7256
c101.792 0 174.664 -101.206 177.715 -105.51c5.22852 -7.40332 3.5 -17.6436 -3.91406 -22.8779c-7.34766 -5.25391 -17.6543 -3.58984 -22.8838 3.88867c-0.671875 0.895508 -66.2266 91.6436 -150.915 91.6436c-36.7412 0 -64.3203 -24.0957 -93.5039 -49.6094
c-29.4756 -25.7695 -62.0781 -54.2607 -105.783 -54.2607c-11.2012 0 -23.1201 1.86035 -35.9102 6.12891l-3.93164 1.9209c-19.9434 13.3506 -24.7568 29.2949 -25.3027 40.3398c-1.52539 31.4131 29.1826 57.5332 32.6982 60.4209
c0.640625 0.516602 1.41211 0.707031 2.10254 1.12793c-2.22949 10.5234 0.144531 21.8457 8.32715 30.0283l183.936 223.489c7.83301 -18.4482 19.1572 -36.0811 34.5352 -51.4521c15.3525 -15.373 32.9658 -26.7314 51.4492 -34.5771l-223.469 -183.954
c-9.22852 -9.2041 -22.4639 -11.5205 -33.9824 -7.51074c-0.678711 -0.864258 -1.17188 -1.8252 -2.03809 -2.5332c-7.0293 -5.84082 -21.3408 -21.6904 -20.7295 -33.5029c0.0966797 -1.76367 0.351562 -6.95898 8.9834 -13.3145
c43.625 -13.4463 73.2764 12.4854 107.485 42.3926c30.9629 27.0508 66.0537 57.7217 115.132 57.7217z" />
    <glyph glyph-name="uniF108" unicode="&#xf108;" 
d="M318.128 269.68l81.8721 52.9287v-217.521l-81.8721 -49.1357v27.6475h-16v-28.2393l-90.9922 56.7197l-0.448242 0.271484v34.5605h-16v-34.5283l-0.479492 -0.303711l-82.208 -51.248v227.168l82.6885 42.1279v-28.624h16v26.0957l89.9834 -58l1.45605 -0.943359
v-30.4639h16v31.4873zM210.688 174.672v35.6484h-16v-35.6484h16zM210.688 238.08v35.6475h-16v-35.6475h16zM318.128 111.36v35.6475h-16v-35.6475h16zM318.128 174.784v35.6318h-16v-35.6318h16zM256 448c141.392 0 256 -114.608 256 -256s-114.608 -256 -256 -256
s-256 114.608 -256 256s114.608 256 256 256zM416 96.0322v255.968l-106.672 -68.96l-106.96 68.96l-106.368 -54.1924v-265.808l106.656 66.4961l106.672 -66.4961z" />
    <glyph glyph-name="uniF100" unicode="&#xf100;" 
d="M468.593 213.588c16.4482 -9.45703 16.4482 -33.3027 0 -43.1758l-400.514 -231.098c-16.4482 -9.45801 -37.0088 2.4668 -37.0088 21.3828v462.605c0 18.916 20.5605 30.8408 37.0088 21.3828z" />
    <glyph glyph-name="uniF10F" unicode="&#xf10f;" 
d="M11.4141 222.283c6.30371 0 11.4141 -5.1084 11.4141 -11.4141v-37.7402c0 -6.30371 -5.11035 -11.4131 -11.4141 -11.4131s-11.4141 5.10938 -11.4141 11.4131v37.7402c0 6.30371 5.11035 11.4141 11.4141 11.4141zM55.8848 222.283
c6.30566 0 11.4141 -5.1084 11.4141 -11.4141v-37.7402c0 -6.30371 -5.11035 -11.4131 -11.4141 -11.4131s-11.4141 5.10938 -11.4141 11.4131v37.7402c0 6.30371 5.11035 11.4141 11.4141 11.4141zM100.355 238.251c6.30371 0 11.4141 -5.11035 11.4141 -11.4141v-69.6738
c0 -6.30371 -5.11035 -11.4141 -11.4141 -11.4141s-11.4141 5.11035 -11.4141 11.4141v69.6738c0 6.30371 5.11035 11.4141 11.4141 11.4141zM144.824 257.12c6.30566 0 11.4141 -5.1084 11.4141 -11.4141v-107.414c0 -6.30371 -5.11035 -11.4141 -11.4141 -11.4141
s-11.4141 5.11035 -11.4141 11.4141v107.414c0 6.30371 5.11035 11.4141 11.4141 11.4141zM189.297 290.506c6.30371 0 11.4141 -5.11035 11.4141 -11.4141v-174.184c0 -6.30371 -5.11035 -11.4141 -11.4141 -11.4141s-11.4141 5.11035 -11.4141 11.4141v174.184
c0 6.30371 5.11035 11.4141 11.4141 11.4141zM233.766 369.617c6.30371 0 11.4141 -5.11035 11.4141 -11.4141v-332.404c0 -6.30371 -5.11035 -11.4141 -11.4141 -11.4141s-11.4141 5.11035 -11.4141 11.4141v332.404c0 6.30371 5.11035 11.4141 11.4141 11.4141z
M278.236 341.312c6.30371 0 11.4141 -5.1084 11.4141 -11.4141v-275.795c0 -6.30371 -5.11035 -11.4141 -11.4141 -11.4141s-11.4141 5.11035 -11.4141 11.4141v275.795c0 6.30371 5.11035 11.4141 11.4141 11.4141zM322.705 284.701
c6.30371 0 11.4141 -5.11035 11.4141 -11.4141v-162.573c0 -6.30371 -5.11035 -11.4131 -11.4141 -11.4131s-11.4141 5.10938 -11.4141 11.4131v162.573c0 6.30371 5.11035 11.4141 11.4141 11.4141zM367.178 250.592c6.30371 0 11.4141 -5.11035 11.4141 -11.4141v-94.3516
c0 -6.30371 -5.11035 -11.4141 -11.4141 -11.4141s-11.4141 5.11035 -11.4141 11.4141v94.3516c0 6.30371 5.11035 11.4141 11.4141 11.4141zM411.648 236.073c6.30371 0 11.4141 -5.11035 11.4141 -11.4141v-65.3193c0 -6.30371 -5.11035 -11.4141 -11.4141 -11.4141
c-6.30469 0 -11.4141 5.11035 -11.4141 11.4141v65.3193c0 6.30371 5.10938 11.4141 11.4141 11.4141zM456.117 222.283c6.30371 0 11.4141 -5.1084 11.4141 -11.4141v-37.7402c0 -6.30371 -5.11035 -11.4131 -11.4141 -11.4131s-11.4141 5.10938 -11.4141 11.4131v37.7402
c0 6.30371 5.11035 11.4141 11.4141 11.4141zM500.586 222.283c6.30371 0 11.4141 -5.1084 11.4141 -11.4141v-37.7402c0 -6.30371 -5.11035 -11.4131 -11.4141 -11.4131s-11.4141 5.10938 -11.4141 11.4131v37.7402c0 6.30371 5.11035 11.4141 11.4141 11.4141z" />
    <glyph glyph-name="uniF110" unicode="&#xf110;" 
d="M242.381 381.799c8.52441 -4.82227 13.6191 -13.6113 13.6191 -23.5186v-338.662c0 -9.91602 -5.09473 -18.7051 -13.6191 -23.5176c-4.05371 -2.28711 -8.45703 -3.42188 -12.8682 -3.43066c-4.65039 0 -9.30176 1.27148 -13.5 3.80566
c-0.486328 0.290039 -0.947266 0.631836 -1.37402 1.02441l-115.566 106.154l-90.5391 -0.0429688c-2.26953 0 -4.42871 0.905273 -6.0332 2.50098c-1.60352 1.5957 -2.5 3.7627 -2.5 6.03223v162.134c0 4.71875 3.81445 8.5332 8.5332 8.5332h90.7432l115.627 97.8174
c0.341797 0.291016 0.716797 0.563477 1.10938 0.793945c8.18359 4.93262 18.0479 5.08594 26.3682 0.375977zM238.934 19.6182v338.662c0 3.67773 -1.85156 6.91211 -4.94141 8.66113c-1.32227 0.750977 -4.73535 2.21875 -8.66992 0.154297l-114.389 -96.7686v-38.707
c0 -4.71875 -3.81445 -8.5332 -8.5332 -8.5332c-4.71973 0 -8.53418 3.81445 -8.53418 8.5332v34.1338h-76.7998v-145.067l76.7998 0.0341797v34.0996c0 4.71875 3.81445 8.5332 8.53418 8.5332c4.71875 0 8.5332 -3.81445 8.5332 -8.5332v-38.8779l114.525 -105.207
c3.85742 -1.9541 7.21094 -0.520508 8.5332 0.22168c3.08984 1.74902 4.94141 4.9834 4.94141 8.66113zM443.955 193.212c0 -71.168 -45.2695 -134.426 -112.665 -157.423c-0.913086 -0.316406 -1.84375 -0.460938 -2.75684 -0.460938
c-3.5498 0 -6.86035 2.23535 -8.07227 5.77734c-1.52734 4.4707 0.861328 9.31836 5.31641 10.8369c60.4756 20.6338 101.111 77.4062 101.111 141.261c0 63.915 -40.7129 120.679 -101.308 141.252c-4.46289 1.51953 -6.85254 6.375 -5.3418 10.8291
c1.51855 4.46289 6.37402 6.85254 10.8281 5.3418c67.5244 -22.9287 112.888 -86.1865 112.888 -157.414zM379.332 393.608c80.5889 -34.2012 132.668 -112.861 132.668 -200.396c0 -90.5303 -54.5703 -170.181 -139.025 -202.923
c-1.01465 -0.392578 -2.05664 -0.571289 -3.08008 -0.571289c-3.42188 0 -6.65625 2.07324 -7.96191 5.45215c-1.70605 4.39453 0.478516 9.33594 4.87305 11.042c77.832 30.1572 128.128 103.569 128.128 187c0 80.665 -47.9922 153.165 -122.266 184.679
c-4.34375 1.84277 -6.36621 6.85156 -4.53125 11.1953c1.85156 4.34375 6.86035 6.33984 11.1953 4.52246zM367.155 193.212c0 -50.9531 -34.2012 -96.4355 -83.1914 -110.609c-0.785156 -0.22168 -1.5791 -0.333008 -2.36426 -0.333008
c-3.71191 0 -7.11621 2.43262 -8.2002 6.16992c-1.30566 4.52246 1.30566 9.25879 5.83691 10.5645c41.7197 12.0576 70.8604 50.7988 70.8604 94.208s-29.1406 82.1504 -70.8604 94.208c-4.54004 1.30566 -7.14258 6.04102 -5.83691 10.5645
c1.31445 4.53906 6.04199 7.125 10.5645 5.83594c48.9814 -14.165 83.1914 -59.6475 83.1914 -110.608z" />
    <glyph glyph-name="uniF112" unicode="&#xf112;" 
d="M363.085 226.198c9.03125 0 15.5879 -6.90137 15.5869 -16.4053v-11.2656c0 -11.0957 -9.0293 -20.125 -20.125 -20.125h-2.43164l3.20312 -7.80176c5.22266 -12.7217 9.47461 -34.2627 9.47461 -48.0176v-96.0293c0 -11.0957 -9.0293 -20.125 -20.125 -20.125h-26.2803
c-11.0957 0 -20.125 9.0293 -20.125 20.125v23.9795h-226.119v-23.9795c0 -11.0957 -9.0293 -20.125 -20.125 -20.125h-26.2842c-11.0957 0 -20.125 9.0293 -20.125 20.125v96.0312c0 13.7568 4.25195 35.2979 9.47461 48.0176l3.20312 7.80176h-2.16211
c-11.0957 0 -20.125 9.0293 -20.125 20.125v11.2656c0 9.50391 6.55469 16.4043 15.5879 16.4043c1.64746 0 3.33887 -0.236328 5.02734 -0.700195l18.874 -5.19824l19.8174 48.2715c5.62109 13.6943 22.2363 24.8379 37.041 24.8379h185.713
c14.8027 0 31.4209 -11.1436 37.0439 -24.8379l19.8408 -48.3398l19.1104 5.26465c1.69141 0.463867 3.38184 0.701172 5.0293 0.701172zM53.916 189.333c-3.36133 -8.19141 1.13086 -14.8926 9.9873 -14.8945h250.604c8.85449 0 13.3467 6.70312 9.98535 14.8945
l-30.0186 73.1172c-3.3623 8.19336 -13.3574 14.8945 -22.2119 14.8945h-166.115c-8.85449 0 -18.8486 -6.70312 -22.2119 -14.8945zM120.925 96.8486v27.3652c0 4.42676 -3.62402 8.04883 -8.04785 8.04883h-57.0234c-4.42871 0 -8.05078 -3.62207 -8.05078 -8.04883
v-27.3652c0 -4.42676 3.62207 -8.04883 8.05078 -8.04883h57.0234c4.42383 0 8.04785 3.62012 8.04785 8.04883zM330.064 96.8486v27.3652c0 4.42676 -3.62402 8.04883 -8.04785 8.04883h-57.0244c-4.42383 0 -8.04785 -3.62207 -8.04785 -8.04883v-27.3652
c0 -4.42676 3.62402 -8.04883 8.04785 -8.04883h57.0244c4.42383 0 8.04785 3.62012 8.04785 8.04883zM486.829 377.573c13.8799 0 25.1709 -11.293 25.1709 -25.1729v-95.3203c0 -13.8799 -11.291 -25.1729 -25.1709 -25.1729h-38.2666v-213.934
c0 -5.18945 -4.20508 -9.39453 -9.39355 -9.39453c-5.18945 0 -9.39355 4.20508 -9.39355 9.39453v213.936h-38.2646c-13.8779 0 -25.1709 11.293 -25.1709 25.1729v95.3203c0 13.8779 11.291 25.1709 25.1709 25.1709h95.3184zM465.24 298.541
c5.50488 4.96094 8.29297 12.2695 8.29492 21.7295c0 9.68066 -2.86035 17.0156 -8.50391 21.8047c-5.35059 4.54004 -11.8623 7.16895 -29.3066 7.16895h-26.332c-2.52832 0 -4.58594 -2.05762 -4.58594 -4.58789v-79.8369c0 -2.52734 2.05566 -4.58398 4.58594 -4.58398
h10.4531c2.5293 0 4.58594 2.05469 4.58594 4.58398v23.2754c0 1.65723 1.34961 3.00781 3.00586 3.00781h13.8037c10.4414 0 18.5166 2.50293 23.999 7.43848zM450.299 329.968c2.47754 -1.875 3.73438 -5.1377 3.73438 -9.69922
c0 -4.51855 -1.25684 -7.76172 -3.73438 -9.63672c-2.06543 -1.55957 -7.69238 -2.37402 -9.68555 -2.55664c-2.05371 -0.189453 -5.41992 -0.34375 -7.50391 -0.34375h-5.67188c-1.65625 0 -3.00586 1.34863 -3.00586 3.00391v19.1299
c0 1.6543 1.34961 3.00391 3.00586 3.00391h9.46777c6.33887 0 10.8457 -0.977539 13.3936 -2.90137z" />
    <glyph glyph-name="uniF10D" unicode="&#xf10d;" 
d="M230.4 64v153.6h51.1992v-153.6h-51.1992zM256 448c140.8 0 256 -115.2 256 -256s-115.2 -256 -256 -256s-256 115.2 -256 256s115.2 256 256 256zM256 -12.7998c112.64 0 204.8 92.1602 204.8 204.8s-92.1602 204.8 -204.8 204.8s-204.8 -92.1602 -204.8 -204.8
s92.1602 -204.8 204.8 -204.8zM230.4 268.8v51.2002h51.1992v-51.2002h-51.1992z" />
  </font>
</defs></svg>
